{
  "include_total": true,
  "resource_id": "8ff027dc-2da2-42e8-85de-78ac3faf470e",
  "fields": [
    {
      "info": {
        "notes": "",
        "label": "\u6e2c\u7ad9\u540d\u7a31"
      },
      "type": "text",
      "id": "SiteName"
    },
    {
      "info": {
        "notes": "",
        "label": "\u7e23\u5e02"
      },
      "type": "text",
      "id": "County"
    },
    {
      "info": {
        "notes": "",
        "label": "\u7a7a\u6c23\u54c1\u8cea\u6307\u6a19"
      },
      "type": "text",
      "id": "AQI"
    },
    {
      "info": {
        "notes": "",
        "label": "\u7a7a\u6c23\u6c61\u67d3\u6307\u6a19\u7269"
      },
      "type": "text",
      "id": "Pollutant"
    },
    {
      "info": {
        "notes": "",
        "label": "\u72c0\u614b"
      },
      "type": "text",
      "id": "Status"
    },
    {
      "info": {
        "notes": "",
        "label": "\u4e8c\u6c27\u5316\u786b(ppb)"
      },
      "type": "text",
      "id": "SO2"
    },
    {
      "info": {
        "notes": "",
        "label": "\u4e00\u6c27\u5316\u78b3(ppm)"
      },
      "type": "text",
      "id": "CO"
    },
    {
      "info": {
        "notes": "",
        "label": "\u4e00\u6c27\u5316\u78b38\u5c0f\u6642\u79fb\u52d5\u5e73\u5747(ppm)"
      },
      "type": "text",
      "id": "CO_8hr"
    },
    {
      "info": {
        "notes": "",
        "label": "\u81ed\u6c27(ppb)"
      },
      "type": "text",
      "id": "O3"
    },
    {
      "info": {
        "notes": "",
        "label": "\u81ed\u6c278\u5c0f\u6642\u79fb\u52d5\u5e73\u5747(ppb)"
      },
      "type": "text",
      "id": "O3_8hr"
    },
    {
      "info": {
        "notes": "",
        "label": "\u61f8\u6d6e\u5fae\u7c92(\u03bcg/m3)"
      },
      "type": "text",
      "id": "PM10"
    },
    {
      "info": {
        "notes": "",
        "label": "\u7d30\u61f8\u6d6e\u5fae\u7c92(\u03bcg/m3)"
      },
      "type": "text",
      "id": "PM2.5"
    },
    {
      "info": {
        "notes": "",
        "label": "\u4e8c\u6c27\u5316\u6c2e(ppb)"
      },
      "type": "text",
      "id": "NO2"
    },
    {
      "info": {
        "notes": "",
        "label": "\u6c2e\u6c27\u5316\u7269(ppb)"
      },
      "type": "text",
      "id": "NOx"
    },
    {
      "info": {
        "notes": "",
        "label": "\u4e00\u6c27\u5316\u6c2e(ppb)"
      },
      "type": "text",
      "id": "NO"
    },
    {
      "info": {
        "notes": "",
        "label": "\u98a8\u901f(m/sec)"
      },
      "type": "text",
      "id": "WindSpeed"
    },
    {
      "info": {
        "notes": "",
        "label": "\u98a8\u5411(degrees)"
      },
      "type": "text",
      "id": "WindDirec"
    },
    {
      "info": {
        "notes": "",
        "label": "\u8cc7\u6599\u5efa\u7f6e\u65e5\u671f"
      },
      "type": "text",
      "id": "PublishTime"
    },
    {
      "info": {
        "notes": "",
        "label": "\u7d30\u61f8\u6d6e\u5fae\u7c92\u79fb\u52d5\u5e73\u5747\u503c(\u03bcg/m3)"
      },
      "type": "text",
      "id": "PM2.5_AVG"
    },
    {
      "info": {
        "notes": "",
        "label": "\u61f8\u6d6e\u5fae\u7c92\u79fb\u52d5\u5e73\u5747\u503c(\u03bcg/m3)"
      },
      "type": "text",
      "id": "PM10_AVG"
    },
    {
      "info": {
        "notes": "",
        "label": "\u4e8c\u6c27\u5316\u786b\u79fb\u52d5\u5e73\u5747\u503c(ppb)"
      },
      "type": "text",
      "id": "SO2_AVG"
    },
    {
      "info": {
        "notes": "",
        "label": "\u7d93\u5ea6"
      },
      "type": "text",
      "id": "Longitude"
    },
    {
      "info": {
        "notes": "",
        "label": "\u7def\u5ea6"
      },
      "type": "text",
      "id": "Latitude"
    },
    {
      "info": {
        "notes": "",
        "label": "\u6e2c\u7ad9\u7de8\u865f"
      },
      "type": "text",
      "id": "SiteId"
    }
  ],
  "__extras": {
    "api_key": "9be7b239-557b-4c10-9775-78cadfc555e9"
  },
  "records_format": "objects",
  "records": [
    {
      "SiteName": "汐止",
      "County": "新北市",
      "AQI": "50",
      "Pollutant": "",
      "Status": "良好",
      "SO2": "2.4",
      "CO": "0.43",
      "CO_8hr": "0.4",
      "O3": "68",
      "O3_8hr": "22",
      "PM10": "33",
      "PM2.5": "19",
      "NO2": "17",
      "NOx": "20",
      "NO": "2.5",
      "WindSpeed": "1.5",
      "WindDirec": "163",
      "PublishTime": "2020-07-13 11:00",
      "PM2.5_AVG": "15",
      "PM10_AVG": "25",
      "SO2_AVG": "3",
      "Longitude": "121.6423",
      "Latitude": "25.067131",
      "SiteId": "2",
      "ImportDate": "2020-07-13 11:56:44.167000"
    },
    {
      "SiteName": "萬里",
      "County": "新北市",
      "AQI": "33",
      "Pollutant": "",
      "Status": "良好",
      "SO2": "6.4",
      "CO": "0.23",
      "CO_8hr": "0.2",
      "O3": "51",
      "O3_8hr": "20",
      "PM10": "22",
      "PM2.5": "16",
      "NO2": "9.7",
      "NOx": "12",
      "NO": "2.8",
      "WindSpeed": "3.8",
      "WindDirec": "47",
      "PublishTime": "2020-07-13 11:00",
      "PM2.5_AVG": "10",
      "PM10_AVG": "16",
      "SO2_AVG": "3",
      "Longitude": "121.689881",
      "Latitude": "25.179667",
      "SiteId": "3",
      "ImportDate": "2020-07-13 11:56:44.167000"
    },
    {
      "SiteName": "新店",
      "County": "新北市",
      "AQI": "33",
      "Pollutant": "",
      "Status": "良好",
      "SO2": "1.6",
      "CO": "0.2",
      "CO_8hr": "0.2",
      "O3": "54",
      "O3_8hr": "21",
      "PM10": "26",
      "PM2.5": "12",
      "NO2": "7",
      "NOx": "8",
      "NO": "1",
      "WindSpeed": "1.6",
      "WindDirec": "251",
      "PublishTime": "2020-07-13 11:00",
      "PM2.5_AVG": "10",
      "PM10_AVG": "22",
      "SO2_AVG": "2",
      "Longitude": "121.537778",
      "Latitude": "24.977222",
      "SiteId": "4",
      "ImportDate": "2020-07-13 11:56:44.167000"
    },
    {
      "SiteName": "土城",
      "County": "新北市",
      "AQI": "39",
      "Pollutant": "",
      "Status": "良好",
      "SO2": "2.4",
      "CO": "0.22",
      "CO_8hr": "0.2",
      "O3": "60",
      "O3_8hr": "20",
      "PM10": "21",
      "PM2.5": "15",
      "NO2": "9.6",
      "NOx": "11",
      "NO": "1.7",
      "WindSpeed": "1.4",
      "WindDirec": "314",
      "PublishTime": "2020-07-13 11:00",
      "PM2.5_AVG": "12",
      "PM10_AVG": "22",
      "SO2_AVG": "2",
      "Longitude": "121.451861",
      "Latitude": "24.982528",
      "SiteId": "5",
      "ImportDate": "2020-07-13 11:56:44.167000"
    },
    {
      "SiteName": "基隆",
      "County": "基隆市",
      "AQI": "36",
      "Pollutant": "",
      "Status": "良好",
      "SO2": "4.3",
      "CO": "0.22",
      "CO_8hr": "0.3",
      "O3": "50",
      "O3_8hr": "17",
      "PM10": "25",
      "PM2.5": "14",
      "NO2": "13",
      "NOx": "16",
      "NO": "3.4",
      "WindSpeed": "1.4",
      "WindDirec": "49",
      "PublishTime": "2020-07-13 11:00",
      "PM2.5_AVG": "11",
      "PM10_AVG": "23",
      "SO2_AVG": "2",
      "Longitude": "121.760056",
      "Latitude": "25.129167",
      "SiteId": "1",
      "ImportDate": "2020-07-13 11:56:44.167000"
    }
  ],
  "limit": 5,
  "offset": 0,
  "_links": {
    "start": "/api/v1/aqx_p_432?api_key=9be7b239-557b-4c10-9775-78cadfc555e9&limit=5&format=json",
    "next": "/api/v1/aqx_p_432?api_key=9be7b239-557b-4c10-9775-78cadfc555e9&limit=5&offset=5&format=json"
  },
  "total": 88
}